{
	"generator_info": "Shape definitions generated with PhysicsEditor. Visit https://www.codeandweb.com/physicseditor",
	"block": {
		"type": "fromPhysicsEditor",
		"label": "block",
		"isStatic": true,
		"density": 0.10000000149011612,
		"restitution": 0,
		"friction": 0.10000000149011612,
		"frictionAir": 0.009999999776482582,
		"frictionStatic": 0.5,
		"collisionFilter": {
			"group": 0,
			"category": 1,
			"mask": 255
		},
		"fixtures": [
			{
				"label": "",
				"isSensor": false,
				"vertices": [
					[ { "x":3.5, "y":694 }, { "x":452, "y":428.5 }, { "x":1, "y":-0.5 } ],
					[ { "x":497, "y":426.5 }, { "x":547, "y":392.5 }, { "x":1, "y":-0.5 }, { "x":452, "y":428.5 } ],
					[ { "x":547, "y":392.5 }, { "x":757, "y":393.5 }, { "x":1517, "y":-0.5 }, { "x":1, "y":-0.5 } ],
					[ { "x":1311, "y":541.5 }, { "x":1335, "y":546.5 }, { "x":1385.5, "y":538 }, { "x":1517, "y":-0.5 }, { "x":1243, "y":446.5 } ],
					[ { "x":1519.5, "y":684 }, { "x":1517, "y":-0.5 }, { "x":1385.5, "y":538 }, { "x":1451.5, "y":618 } ],
					[ { "x":1243, "y":446.5 }, { "x":1517, "y":-0.5 }, { "x":757, "y":393.5 }, { "x":813, "y":446.5 } ]
				]
			}
		]
	},
	"attic": {
		"type": "fromPhysicsEditor",
		"label": "attic",
		"isStatic": true,
		"density": 0.10000000149011612,
		"restitution": 0,
		"friction": 0.10000000149011612,
		"frictionAir": 0.009999999776482582,
		"frictionStatic": 0.5,
		"collisionFilter": {
			"group": 0,
			"category": 1,
			"mask": 255
		},
		"fixtures": [
			{
				"label": "",
				"isSensor": false,
				"vertices": [
					[ { "x":1293, "y":517 }, { "x":1289, "y":422 }, { "x":1118, "y":422 }, { "x":1118, "y":495 } ]
				]
			}
		]
	},
	"village": {
		"type": "fromPhysicsEditor",
		"label": "village",
		"isStatic": true,
		"density": 0.10000000149011612,
		"restitution": 0,
		"friction": 0.10000000149011612,
		"frictionAir": 0.009999999776482582,
		"frictionStatic": 0.5,
		"collisionFilter": {
			"group": 0,
			"category": 1,
			"mask": 255
		},
		"fixtures": [
			{
				"label": "",
				"isSensor": false,
				"vertices": [
					[ { "x":57, "y":646 }, { "x":201, "y":704 }, { "x":292, "y":605 }, { "x":192, "y":565 }, { "x":191, "y":565 } ]
				]
			}
		]
	}
}
